…
  data <- c(data, new_conditions)
  last_conditions <- new_conditions
}

image <- tibble(x, y, value=data)
image
```

    ## # A tibble: 7,171 × 3
    ##        x     y value
    ##    <int> <int> <dbl>
    ##  1     0     0     0
    ##  2     1     0     0
    ##  3     2     0     0
    ##  4     3     0     0
    ##  5     4     0     0
    ##  6     5     0     0
    ##  7     6     0     0
    ##  8     7     0     0
    ##  9     8     0     0
    ## 10     9     0     0
    ## # … with 7,161 more rows
…
